{
  "page": 50,
  "total_results": 6393,
  "total_pages": 320,
  "results": [
    {
      "vote_count": 5404,
      "id": 4922,
      "video": false,
      "vote_average": 7.4,
      "title": "The Curious Case of Benjamin Button",
      "popularity": 11.099,
      "poster_path": "/gjMR102u5hPdIAWX7O2rim8ZWgA.jpg",
      "original_language": "en",
      "original_title": "The Curious Case of Benjamin Button",
      "genre_ids": [
        14,
        18,
        53,
        9648,
        10749
      ],
      "backdrop_path": "/u4izHlsHk8jwalt5m7E2uzP8q9E.jpg",
      "adult": false,
      "overview": "Tells the story of Benjamin Button, a man who starts aging backwards with bizarre consequences.",
      "release_date": "2008-12-25"
    },
    {
      "vote_count": 150,
      "id": 36040,
      "video": false,
      "vote_average": 7.4,
      "title": "Walkabout",
      "popularity": 4.79,
      "poster_path": "/24vooYt5StgtgcQObVr1GHuM5gy.jpg",
      "original_language": "en",
      "original_title": "Walkabout",
      "genre_ids": [
        12,
        18
      ],
      "backdrop_path": "/eg5XyfnonAJHuLvw0aANU9wJQ8E.jpg",
      "adult": false,
      "overview": "Under the pretense of having a picnic, a geologist takes his teenage daughter and 6-year-old son into the Australian outback and attempts to shoot them. When he fails, he turns the gun on himself, and the two city-bred children must contend with harsh wilderness alone. They are saved by a chance encounter with an Aborigine boy who shows them how to survive, and in the process underscores the disharmony between nature and modern life.",
      "release_date": "1971-07-01"
    },
    {
      "vote_count": 1730,
      "id": 140823,
      "video": false,
      "vote_average": 7.4,
      "title": "Saving Mr. Banks",
      "popularity": 6.946,
      "poster_path": "/mvs3reS18RP6IhjLwwLeVtkoeg0.jpg",
      "original_language": "en",
      "original_title": "Saving Mr. Banks",
      "genre_ids": [
        35,
        18,
        36
      ],
      "backdrop_path": "/fJQ5kjLx4UdK05MC323Vlzwr6S8.jpg",
      "adult": false,
      "overview": "Author P.L. Travers travels from London to Hollywood as Walt Disney Pictures adapts her novel Mary Poppins for the big screen.",
      "release_date": "2013-11-16"
    },
    {
      "vote_count": 970,
      "id": 318121,
      "video": false,
      "vote_average": 7.4,
      "title": "The Fundamentals of Caring",
      "popularity": 5.431,
      "poster_path": "/yLnbPJcd4nZeK9QQZro4GIDftyY.jpg",
      "original_language": "en",
      "original_title": "The Fundamentals of Caring",
      "genre_ids": [
        35,
        18
      ],
      "backdrop_path": "/qcn1FM0WnRuIadbQkk58Xksl67l.jpg",
      "adult": false,
      "overview": "Having suffered a tragedy, Ben becomes a caregiver to earn money. His first client, Trevor, is a hilarious 18-year-old with muscular dystrophy. One paralyzed emotionally, one paralyzed physically, Ben and Trevor hit the road on a trip into the western states. The folks they collect along the way will help them test their skills for surviving outside their calculated existence. Together, they come to understand the importance of hope and the necessity of true friendship.",
      "release_date": "2016-06-16"
    },
    {
      "vote_count": 580,
      "id": 1883,
      "video": false,
      "vote_average": 7.4,
      "title": "Malcolm X",
      "popularity": 6.451,
      "poster_path": "/jDQ2iBJuiimvYqk9orA2YaigBmW.jpg",
      "original_language": "en",
      "original_title": "Malcolm X",
      "genre_ids": [
        18,
        36
      ],
      "backdrop_path": "/pret3gob7522ekpXJD85BE5Fs74.jpg",
      "adult": false,
      "overview": "A tribute to the controversial black activist and leader of the struggle for black liberation. He hit bottom during his imprisonment in the '50s, he became a Black Muslim and then a leader in the Nation of Islam. His assassination in 1965 left a legacy of self-determination and racial pride.",
      "release_date": "1992-11-18"
    },
    {
      "vote_count": 163,
      "id": 13321,
      "video": false,
      "vote_average": 7.4,
      "title": "Lifeboat",
      "popularity": 5.504,
      "poster_path": "/AfHjGkg3g9yTLhYtls8fSUuOKNt.jpg",
      "original_language": "en",
      "original_title": "Lifeboat",
      "genre_ids": [
        18,
        10752
      ],
      "backdrop_path": "/jzaj6u8wBltkYqJHCxux0zH4nEb.jpg",
      "adult": false,
      "overview": "During World War II, a small group of survivors is stranded in a lifeboat together after the ship they were traveling on is destroyed by a German U-boat.",
      "release_date": "1944-01-11"
    },
    {
      "vote_count": 445,
      "id": 33273,
      "video": false,
      "vote_average": 7.4,
      "title": "Cell 211",
      "popularity": 7.779,
      "poster_path": "/kIC41387ph63EIWaGkHxij6S68n.jpg",
      "original_language": "es",
      "original_title": "Celda 211",
      "genre_ids": [
        28,
        53,
        18
      ],
      "backdrop_path": "/ktmOgR85nHbdUL3EBESus3YyKe4.jpg",
      "adult": false,
      "overview": "The story of two men on different sides of a prison riot -- the inmate leading the rebellion and the young guard trapped in the revolt, who poses as a prisoner in a desperate attempt to survive the ordeal.",
      "release_date": "2009-11-06"
    },
    {
      "vote_count": 273,
      "id": 11713,
      "video": false,
      "vote_average": 7.4,
      "title": "Fist of Fury",
      "popularity": 8.746,
      "poster_path": "/ld1kAfLJTgpZVm3jwT58bTxmXl7.jpg",
      "original_language": "zh",
      "original_title": "精武門",
      "genre_ids": [
        18,
        28,
        53
      ],
      "backdrop_path": "/fy1C5tM9L39i7JF0iw6DIycOO1j.jpg",
      "adult": false,
      "overview": "Chen Zhen returns to the international compound of China only to learn of his beloved teacher's death. This is compounded by the continual racist harassment by the Japanese population in the area. Unlike his friends, he confronts it head on with his mastery of martial arts while investigating his teacher's murder.",
      "release_date": "1972-03-22"
    },
    {
      "vote_count": 1127,
      "id": 69,
      "video": false,
      "vote_average": 7.4,
      "title": "Walk the Line",
      "popularity": 6.229,
      "poster_path": "/wdxL3Zyh3O5MIbmsSiZEevJAjtQ.jpg",
      "original_language": "en",
      "original_title": "Walk the Line",
      "genre_ids": [
        18,
        10402,
        10749
      ],
      "backdrop_path": "/oT79THuFrcBzrhlf4fiCddwZBCQ.jpg",
      "adult": false,
      "overview": "A chronicle of country music legend Johnny Cash's life, from his early days on an Arkansas cotton farm to his rise to fame with Sun Records in Memphis, where he recorded alongside Elvis Presley, Jerry Lee Lewis and Carl Perkins.",
      "release_date": "2005-09-13"
    },
    {
      "vote_count": 996,
      "id": 2757,
      "video": false,
      "vote_average": 7.4,
      "title": "Adaptation.",
      "popularity": 6.957,
      "poster_path": "/5trb1V5f3IsjpZx2GiuUylowl3W.jpg",
      "original_language": "en",
      "original_title": "Adaptation.",
      "genre_ids": [
        35,
        80,
        18
      ],
      "backdrop_path": "/fNR3l9AIX9Lzf1q3FcTIDikYNpP.jpg",
      "adult": false,
      "overview": "A love-lorn script writer grows increasingly desperate in his quest to adapt the book 'The Orchid Thief'.",
      "release_date": "2002-12-06"
    },
    {
      "vote_count": 341,
      "id": 10849,
      "video": false,
      "vote_average": 7.4,
      "title": "The Purple Rose of Cairo",
      "popularity": 6.578,
      "poster_path": "/nWMT2WBzPtrXdjPlb28PFSrBGd0.jpg",
      "original_language": "en",
      "original_title": "The Purple Rose of Cairo",
      "genre_ids": [
        14,
        35,
        10749
      ],
      "backdrop_path": "/2cQo6h9gQtkpJFP1cEWPpnSsZ7w.jpg",
      "adult": false,
      "overview": "Cecilia is a waitress in New Jersey, living a dreary life during the Great Depression. Her only escape from her mundane reality is the movie theatre. After losing her job, Cecilia goes to see 'The Purple Rose of Cairo' in hopes of raising her spirits, where she watches dashing archaeologist Tom Baxter time and again.",
      "release_date": "1985-03-01"
    },
    {
      "vote_count": 171,
      "id": 3109,
      "video": false,
      "vote_average": 7.4,
      "title": "The Quiet Man",
      "popularity": 5.61,
      "poster_path": "/9twLidKb0ZmPPyslgpvJI8Gbjyd.jpg",
      "original_language": "en",
      "original_title": "The Quiet Man",
      "genre_ids": [
        35,
        18,
        10749
      ],
      "backdrop_path": "/uZttYyxXYws0REW3BKCtGXy8dWh.jpg",
      "adult": false,
      "overview": "Sean Thornton has returned from America to reclaim his homestead and escape his past. Sean's eye is caught by Mary Kate Danaher, the beautiful spinster and younger sister of ill-tempered \"Red\" Will Danaher. The riotous relationship that forms between Sean and Mary Kate, punctuated by Will's pugnacious attempts to keep them apart, form the plot, with Sean's past as the dark undercurrent.",
      "release_date": "1952-07-21"
    },
    {
      "vote_count": 9667,
      "id": 101299,
      "video": false,
      "vote_average": 7.4,
      "title": "The Hunger Games: Catching Fire",
      "popularity": 20.383,
      "poster_path": "/Hn0KgefVEp0GkdTexS6gfKTMfi.jpg",
      "original_language": "en",
      "original_title": "The Hunger Games: Catching Fire",
      "genre_ids": [
        12,
        28,
        878
      ],
      "backdrop_path": "/wRCPG1lsgfTFkWJ7G3eWgxCgv0C.jpg",
      "adult": false,
      "overview": "Katniss Everdeen has returned home safe after winning the 74th Annual Hunger Games along with fellow tribute Peeta Mellark. Winning means that they must turn around and leave their family and close friends, embarking on a \"Victor's Tour\" of the districts. Along the way Katniss senses that a rebellion is simmering, but the Capitol is still very much in control as President Snow prepares the 75th Annual Hunger Games (The Quarter Quell) - a competition that could change Panem forever.",
      "release_date": "2013-11-15"
    },
    {
      "vote_count": 831,
      "id": 1251,
      "video": false,
      "vote_average": 7.4,
      "title": "Letters from Iwo Jima",
      "popularity": 8.034,
      "poster_path": "/nWJJqOryTQOmVXvKUkLcEETUHgT.jpg",
      "original_language": "en",
      "original_title": "Letters from Iwo Jima",
      "genre_ids": [
        28,
        18,
        10752
      ],
      "backdrop_path": "/iMiKWZFILSbzwFWdp30mS1HciT7.jpg",
      "adult": false,
      "overview": "The story of the battle of Iwo Jima between the United States and Imperial Japan during World War II, as told from the perspective of the Japanese who fought it.",
      "release_date": "2006-12-19"
    },
    {
      "vote_count": 228,
      "id": 14257,
      "video": false,
      "vote_average": 7.4,
      "title": "Delusions of Grandeur",
      "popularity": 5.506,
      "poster_path": "/CNWqZtQt1oNkuxSAdWttMvY9Mz.jpg",
      "original_language": "fr",
      "original_title": "La Folie des grandeurs",
      "genre_ids": [
        35,
        36
      ],
      "backdrop_path": "/9Sl2CThKrzcTQveJMfZYxYCG3pE.jpg",
      "adult": false,
      "overview": "Don Sallust (Louis de Funès) is minister of the King of Spain. It is a being disingenuous, hypocritical and greedy that collects the taxes himself, he turns in part to his advantage. He is hated by the people he oppresse.Accusé by Queen, a beautiful princess Bavarian, of having an illegitimate child to one of her maids of honor, he was stripped of his duties and ordered to retire to a monastery. Decided to revenge, it comes in contact with his nephew seducing Caesar ...",
      "release_date": "1971-04-01"
    },
    {
      "vote_count": 3742,
      "id": 620,
      "video": false,
      "vote_average": 7.4,
      "title": "Ghostbusters",
      "popularity": 13.908,
      "poster_path": "/3FS3oBdorgczgfCkFi2u8ZTFfpS.jpg",
      "original_language": "en",
      "original_title": "Ghostbusters",
      "genre_ids": [
        35,
        14
      ],
      "backdrop_path": "/lIQKmTXxBM0SjdA4lJyV8aFZ6tg.jpg",
      "adult": false,
      "overview": "After losing their academic posts at a prestigious university, a team of parapsychologists goes into business as proton-pack-toting \"ghostbusters\" who exterminate ghouls, hobgoblins and supernatural pests of all stripes. An ad campaign pays off when a knockout cellist hires the squad to purge her swanky digs of demons that appear to be living in her refrigerator.",
      "release_date": "1984-06-07"
    },
    {
      "vote_count": 453,
      "id": 11202,
      "video": false,
      "vote_average": 7.4,
      "title": "Patton",
      "popularity": 6.283,
      "poster_path": "/6pyN7udgYaGr6uNIP2MuLUcqmPh.jpg",
      "original_language": "en",
      "original_title": "Patton",
      "genre_ids": [
        18,
        36,
        10752
      ],
      "backdrop_path": "/iCLuDtSSU0cFLH1oTM1828STIOB.jpg",
      "adult": false,
      "overview": "\"Patton\" tells the tale of General George S. Patton, famous tank commander of World War II. The film begins with patton's career in North Africa and progresses through the invasion of Germany and the fall of the Third Reich. Side plots also speak of Patton's numerous faults such his temper and habit towards insubordination.",
      "release_date": "1970-01-25"
    },
    {
      "vote_count": 1536,
      "id": 74643,
      "video": false,
      "vote_average": 7.4,
      "title": "The Artist",
      "popularity": 6.943,
      "poster_path": "/i0mpvMIIjyubXsVKug9vX0lYpnd.jpg",
      "original_language": "en",
      "original_title": "The Artist",
      "genre_ids": [
        18,
        35,
        10749
      ],
      "backdrop_path": "/tr6OExnBfjLADi9OyZoW308mPAp.jpg",
      "adult": false,
      "overview": "Hollywood, 1927: As silent movie star George Valentin wonders if the arrival of talking pictures will cause him to fade into oblivion, he sparks with Peppy Miller, a young dancer set for a big break.",
      "release_date": "2011-06-26"
    },
    {
      "vote_count": 803,
      "id": 61979,
      "video": false,
      "vote_average": 7.4,
      "title": "Three Steps Above Heaven",
      "popularity": 6.495,
      "poster_path": "/57D3h8wb3LMURTyG0dv2VtHfvCM.jpg",
      "original_language": "es",
      "original_title": "Tres metros sobre el cielo",
      "genre_ids": [
        10749,
        18
      ],
      "backdrop_path": "/s2oijODraFSK98X691iXUIOYULl.jpg",
      "adult": false,
      "overview": "Story of two young people who belong to different worlds. It is the chronicle of a love improbable, almost impossible but inevitable dragging in a frantic journey they discover the first great love. Babi (Maria Valverde) is a girl from upper-middle class that is educated in goodness and innocence . Hache (Mario Casas) is a rebellious boy, impulsive, unconscious, has a appetite for risk and danger embodied in endless fights and illegal motorbike races, the limit of common sense",
      "release_date": "2010-12-03"
    },
    {
      "vote_count": 2913,
      "id": 206487,
      "video": false,
      "vote_average": 7.4,
      "title": "Predestination",
      "popularity": 9.854,
      "poster_path": "/kDdUtDsGMQ3OYwoBtEQyJIGPz4V.jpg",
      "original_language": "en",
      "original_title": "Predestination",
      "genre_ids": [
        878,
        53
      ],
      "backdrop_path": "/1G44M3SNVcVBZer0I5ogQBUnVCz.jpg",
      "adult": false,
      "overview": "Predestination chronicles the life of a Temporal Agent sent on an intricate series of time-travel journeys designed to prevent future killers from committing their crimes. Now, on his final assignment, the Agent must stop the one criminal that has eluded him throughout time and prevent a devastating attack in which thousands of lives will be lost.",
      "release_date": "2014-08-28"
    }
  ]
}